…
author: "Prof. Dr. Suhartono, M. Kom @ Dini Kristianti, S. Kom"
date: "23 Februari 2021"
output: html_document
---
Dalam bab ini kita akan fokus pada bagaimana menggunakan paket dplyr, anggota inti lain dari tidyverse. Kami akan mengilustrasikan ide utama menggunakan data dari paket nycflights13, dan menggunakan ggplot2 untuk membantu kami memahami datanya.
berikut library yang harus di install
```{r}
library(nycflights13)
library(tidyverse)
```
nycflights13
Untuk menjelajahi kata kerja manipulasi data dasar dari dplyr, kita akan menggunakan nycflights13
```{r}
flights
#> # A tibble: 336,776 x 19
#>    year month   day dep_time sched_dep_time dep_delay arr_time sched_arr_time
#>   <int> <int> <int>    <int>          <int>     <dbl>    <int>          <int>
#> 1  2013     1     1      517            515         2      830            819
#> 2  2013     1     1      533            529         4      850            830
#> 3  2013     1     1      542            540         2      923            850
#> 4  2013     1     1      544            545        -1     1004           1022
#> 5  2013     1     1      554            600        -6      812            837
#> 6  2013     1     1      554            558        -4      740            728
#> # . with 336,770 more rows, and 11 more variables: arr_delay <dbl>,
#> #   carrier <chr>, flight <int>, tailnum <chr>, origin <chr>, dest <chr>,
#> #   air_time <dbl>, distance <dbl>, hour <dbl>, minute <dbl>, time_hour <dttm>
```
Filter baris dengan filter ()
filter () memungkinkan Anda untuk membuat subset pengamatan berdasarkan nilainya. Argumen pertama adalah nama bingkai data. Argumen kedua dan selanjutnya adalah ekspresi yang memfilter bingkai data. Misalnya, kami dapat memilih semua penerbangan pada tanggal 1 Januari dengan:
```{r}
filter(flights, month == 1, day == 1)
#> # A tibble: 842 x 19
#>    year month   day dep_time sched_dep_time dep_delay arr_time sched_arr_time
#>   <int> <int> <int>    <int>          <int>     <dbl>    <int>          <int>
#> 1  2013     1     1      517            515         2      830            819
#> 2  2013     1     1      533            529         4      850            830
#> 3  2013     1     1      542            540         2      923            850
#> 4  2013     1     1      544            545        -1     1004           1022
#> 5  2013     1     1      554            600        -6      812            837
#> 6  2013     1     1      554            558        -4      740            728
#> # . with 836 more rows, and 11 more variables: arr_delay <dbl>, carrier <chr>,
#> #   flight <int>, tailnum <chr>, origin <chr>, dest <chr>, air_time <dbl>,
#> #   distance <dbl>, hour <dbl>, minute <dbl>, time_hour <dttm>
```
Fungsi dplyr tidak pernah mengubah masukannya, jadi jika Anda ingin menyimpan hasilnya, Anda harus menggunakan operator penugasan, <-:
```{r}
jan1 <- filter(flights, month == 1, day == 1)
```
R baik mencetak hasil, atau menyimpannya ke variabel. Jika Anda ingin melakukan keduanya, maka scriptnya
```{r}
(dec25 <- filter(flights, month == 12, day == 25))
#> # A tibble: 719 x 19
#>    year month   day dep_time sched_dep_time dep_delay arr_time sched_arr_time
#>   <int> <int> <int>    <int>          <int>     <dbl>    <int>          <int>
#> 1  2013    12    25      456            500        -4      649            651
#> 2  2013    12    25      524            515         9      805            814
#> 3  2013    12    25      542            540         2      832            850
#> 4  2013    12    25      546            550        -4     1022           1027
#> 5  2013    12    25      556            600        -4      730            745
#> 6  2013    12    25      557            600        -3      743            752
#> # . with 713 more rows, and 11 more variables: arr_delay <dbl>, carrier <chr>,
#> #   flight <int>, tailnum <chr>, origin <chr>, dest <chr>, air_time <dbl>,
#> #   distance <dbl>, hour <dbl>, minute <dbl>, time_hour <dttm>
```
…
#>       x
#>   <dbl>
#> 1     3
filter(df, is.na(x) | x > 1)
#> # A tibble: 2 x 1
#>       x
#>   <dbl>
#> 1    NA
#> 2     3
```
Susun baris dengan mengatur ()
mengatur () bekerja mirip dengan filter () kecuali bahwa alih-alih memilih baris, itu mengubah urutannya. Dibutuhkan bingkai data dan sekumpulan nama kolom (atau ekspresi yang lebih rumit) untuk diurutkan. Jika Anda memberikan lebih dari satu nama kolom, setiap kolom tambahan akan digunakan untuk memutuskan hubungan dalam nilai kolom sebelumnya:
```{r}
arrange(flights, year, month, day)
#> # A tibble: 336,776 x 19
#>    year month   day dep_time sched_dep_time dep_delay arr_time sched_arr_time
#>   <int> <int> <int>    <int>          <int>     <dbl>    <int>          <int>
#> 1  2013     1     1      517            515         2      830            819
#> 2  2013     1     1      533            529         4      850            830
#> 3  2013     1     1      542            540         2      923            850
#> 4  2013     1     1      544            545        -1     1004           1022
#> 5  2013     1     1      554            600        -6      812            837
#> 6  2013     1     1      554            558        -4      740            728
#> # . with 336,770 more rows, and 11 more variables: arr_delay <dbl>,
#> #   carrier <chr>, flight <int>, tailnum <chr>, origin <chr>, dest <chr>,
#> #   air_time <dbl>, distance <dbl>, hour <dbl>, minute <dbl>, time_hour <dttm>
```
Gunakan desc () untuk mengurutkan ulang menurut kolom dalam urutan menurun:

```{r}
arrange(flights, desc(dep_delay))
#> # A tibble: 336,776 x 19
#>    year month   day dep_time sched_dep_time dep_delay arr_time sched_arr_time
#>   <int> <int> <int>    <int>          <int>     <dbl>    <int>          <int>
#> 1  2013     1     9      641            900      1301     1242           1530
#> 2  2013     6    15     1432           1935      1137     1607           2120
#> 3  2013     1    10     1121           1635      1126     1239           1810
#> 4  2013     9    20     1139           1845      1014     1457           2210
#> 5  2013     7    22      845           1600      1005     1044           1815
#> 6  2013     4    10     1100           1900       960     1342           2211
#> # . with 336,770 more rows, and 11 more variables: arr_delay <dbl>,
#> #   carrier <chr>, flight <int>, tailnum <chr>, origin <chr>, dest <chr>,
#> #   air_time <dbl>, distance <dbl>, hour <dbl>, minute <dbl>, time_hour <dttm>
```
…
Memilih kolom ()
```{r}
# Select columns by name
select(flights, year, month, day)
#> # A tibble: 336,776 x 3
#>    year month   day
#>   <int> <int> <int>
#> 1  2013     1     1
#> 2  2013     1     1
#> 3  2013     1     1
#> 4  2013     1     1
#> 5  2013     1     1
#> 6  2013     1     1
#> # . with 336,770 more rows
# Select all columns between year and day (inclusive)
select(flights, year:day)
#> # A tibble: 336,776 x 3
#>    year month   day
#>   <int> <int> <int>
#> 1  2013     1     1
#> 2  2013     1     1
#> 3  2013     1     1
#> 4  2013     1     1
#> 5  2013     1     1
#> 6  2013     1     1
#> # . with 336,770 more rows
# Select all columns except those from year to day (inclusive)
select(flights, -(year:day))
#> # A tibble: 336,776 x 16
#>   dep_time sched_dep_time dep_delay arr_time sched_arr_time arr_delay carrier
#>      <int>          <int>     <dbl>    <int>          <int>     <dbl> <chr>  
#> 1      517            515         2      830            819        11 UA     
#> 2      533            529         4      850            830        20 UA     
#> 3      542            540         2      923            850        33 AA     
#> 4      544            545        -1     1004           1022       -18 B6     
#> 5      554            600        -6      812            837       -25 DL     
#> 6      554            558        -4      740            728        12 UA     
#> # . with 336,770 more rows, and 9 more variables: flight <int>, tailnum <chr>,
#> #   origin <chr>, dest <chr>, air_time <dbl>, distance <dbl>, hour <dbl>,
#> #   minute <dbl>, time_hour <dttm>
```
select () dapat digunakan untuk mengganti nama variabel,Sebagai gantinya, gunakan rename (), yang merupakan varian dari select () yang menyimpan semua variabel yang tidak disebutkan secara eksplisit:

```{r}
rename(flights, tail_num = tailnum)
#> # A tibble: 336,776 x 19
#>    year month   day dep_time sched_dep_time dep_delay arr_time sched_arr_time
#>   <int> <int> <int>    <int>          <int>     <dbl>    <int>          <int>
#> 1  2013     1     1      517            515         2      830            819
#> 2  2013     1     1      533            529         4      850            830
#> 3  2013     1     1      542            540         2      923            850
#> 4  2013     1     1      544            545        -1     1004           1022
#> 5  2013     1     1      554            600        -6      812            837
#> 6  2013     1     1      554            558        -4      740            728
#> # . with 336,770 more rows, and 11 more variables: arr_delay <dbl>,
#> #   carrier <chr>, flight <int>, tail_num <chr>, origin <chr>, dest <chr>,
#> #   air_time <dbl>, distance <dbl>, hour <dbl>, minute <dbl>, time_hour <dttm>
```

Opsi lainnya adalah menggunakan select () bersama dengan helper everything (). Ini berguna jika Anda memiliki beberapa variabel yang ingin Anda pindahkan ke awal bingkai data.

```{r}
select(flights, time_hour, air_time, everything())
#> # A tibble: 336,776 x 19
#>   time_hour           air_time  year month   day dep_time sched_dep_time
#>   <dttm>                 <dbl> <int> <int> <int>    <int>          <int>
#> 1 2013-01-01 05:00:00      227  2013     1     1      517            515
#> 2 2013-01-01 05:00:00      227  2013     1     1      533            529
#> 3 2013-01-01 05:00:00      160  2013     1     1      542            540
#> 4 2013-01-01 05:00:00      183  2013     1     1      544            545
#> 5 2013-01-01 06:00:00      116  2013     1     1      554            600
#> 6 2013-01-01 05:00:00      150  2013     1     1      554            558
#> # . with 336,770 more rows, and 12 more variables: dep_delay <dbl>,
#> #   arr_time <int>, sched_arr_time <int>, arr_delay <dbl>, carrier <chr>,
#> #   flight <int>, tailnum <chr>, origin <chr>, dest <chr>, distance <dbl>,
#> #   hour <dbl>, minute <dbl>
```
…
mutate () selalu menambahkan kolom baru di akhir kumpulan data Anda, jadi kita akan mulai dengan membuat kumpulan data yang lebih sempit sehingga kita dapat melihat variabel baru. Ingatlah bahwa saat Anda berada di RStudio, cara termudah untuk melihat semua kolom adalah View ().

```{r}
flights_sml <- select(flights, 
  year:day, 
  ends_with("delay"), 
  distance, 
  air_time
)
mutate(flights_sml,
  gain = dep_delay - arr_delay,
  speed = distance / air_time * 60
)
#> # A tibble: 336,776 x 9
#>    year month   day dep_delay arr_delay distance air_time  gain speed
#>   <int> <int> <int>     <dbl>     <dbl>    <dbl>    <dbl> <dbl> <dbl>
#> 1  2013     1     1         2        11     1400      227    -9  370.
#> 2  2013     1     1         4        20     1416      227   -16  374.
#> 3  2013     1     1         2        33     1089      160   -31  408.
#> 4  2013     1     1        -1       -18     1576      183    17  517.
#> 5  2013     1     1        -6       -25      762      116    19  394.
#> 6  2013     1     1        -4        12      719      150   -16  288.
#> # . with 336,770 more rows
```
Perhatikan bahwa Anda dapat merujuk ke kolom yang baru saja Anda buat:

```{r}
mutate(flights_sml,
  gain = dep_delay - arr_delay,
  hours = air_time / 60,
  gain_per_hour = gain / hours
)
#> # A tibble: 336,776 x 10
#>    year month   day dep_delay arr_delay distance air_time  gain hours
#>   <int> <int> <int>     <dbl>     <dbl>    <dbl>    <dbl> <dbl> <dbl>
#> 1  2013     1     1         2        11     1400      227    -9  3.78
#> 2  2013     1     1         4        20     1416      227   -16  3.78
#> 3  2013     1     1         2        33     1089      160   -31  2.67
#> 4  2013     1     1        -1       -18     1576      183    17  3.05
#> 5  2013     1     1        -6       -25      762      116    19  1.93
#> 6  2013     1     1        -4        12      719      150   -16  2.5 
#> # . with 336,770 more rows, and 1 more variable: gain_per_hour <dbl>
```

Jika Anda hanya ingin menyimpan variabel baru, gunakan transmute ():
```{r}
transmute(flights,
  gain = dep_delay - arr_delay,
  hours = air_time / 60,
  gain_per_hour = gain / hours
)
#> # A tibble: 336,776 x 3
#>    gain hours gain_per_hour
#>   <dbl> <dbl>         <dbl>
#> 1    -9  3.78         -2.38
#> 2   -16  3.78         -4.23
#> 3   -31  2.67        -11.6 
#> 4    17  3.05          5.57
#> 5    19  1.93          9.83
#> 6   -16  2.5          -6.4 
#> # . with 336,770 more rows
```

Fungsi kreasi yang berguna
Ada banyak fungsi untuk membuat variabel baru yang bisa Anda gunakan dengan mutate (). Properti kuncinya adalah bahwa fungsi tersebut harus vektorisasi: ia harus mengambil vektor nilai sebagai masukan, mengembalikan vektor dengan jumlah nilai yang sama sebagai keluaran. Tidak ada cara untuk membuat daftar setiap kemungkinan fungsi yang mungkin Anda gunakan, tapi berikut adalah beberapa fungsi yang sering berguna:

1. Operator aritmatika: +, -, *, /, ^. Contoh :air_time / 60, hours * 60 + minute, dll.
2. Operator aritmatika juga berguna dalam hubungannya dengan fungsi agregat yang akan Anda pelajari nanti. Misalnya, x / jumlah (x) menghitung proporsi dari total, dan y - mean (y) menghitung selisih dari mean.
3. Aritmatika modular:% /% (pembagian integer) dan %% (sisa), di mana x == y * (x% /% y) + (x %% y). Aritmatika modular adalah alat praktis karena memungkinkan Anda memecah bilangan bulat menjadi beberapa bagian. Misalnya, dalam kumpulan data penerbangan, Anda dapat menghitung jam dan menit dari dep_time dengan:

```{r}
transmute(flights,
  dep_time,
  hour = dep_time %/% 100,
  minute = dep_time %% 100
)
#> # A tibble: 336,776 x 3
#>   dep_time  hour minute
#>      <int> <dbl>  <dbl>
#> 1      517     5     17
#> 2      533     5     33
#> 3      542     5     42
#> 4      544     5     44
#> 5      554     5     54
#> 6      554     5     54
#> # . with 336,770 more rows
```
…
(Kita akan kembali ke arti na.rm = TRUE itu sebentar lagi.)

summarize () tidak terlalu berguna kecuali kita memasangkannya dengan group_by (). Ini mengubah unit analisis dari kumpulan data lengkap menjadi kelompok individu. Kemudian, saat Anda menggunakan kata kerja dplyr pada bingkai data yang dikelompokkan, kata kerja tersebut akan otomatis diterapkan "menurut grup". Misalnya, jika kami menerapkan kode yang persis sama ke bingkai data yang dikelompokkan berdasarkan tanggal, kami mendapatkan penundaan rata-rata per tanggal:

```{r}
by_day <- group_by(flights, year, month, day)
summarise(by_day, delay = mean(dep_delay, na.rm = TRUE))
#> `summarise()` regrouping output by 'year', 'month' (override with `.groups` argument)
#> # A tibble: 365 x 4
#> # Groups:   year, month [12]
#>    year month   day delay
#>   <int> <int> <int> <dbl>
#> 1  2013     1     1 11.5 
#> 2  2013     1     2 13.9 
#> 3  2013     1     3 11.0 
#> 4  2013     1     4  8.95
#> 5  2013     1     5  5.73
#> 6  2013     1     6  7.15
#> # . with 359 more rows
```
…
    count = n(),
    dist = mean(distance, na.rm = TRUE),
    delay = mean(arr_delay, na.rm = TRUE)
  ) %>% 
  filter(count > 20, dest != "HNL")
#> `summarise()` ungrouping output (override with `.groups` argument)
```
Nilai yang hilang
Anda mungkin bertanya-tanya tentang argumen na.rm yang kami gunakan di atas. Apa yang terjadi jika kita tidak menyetelnya?
```{r}
flights %>% 
  group_by(year, month, day) %>% 
  summarise(mean = mean(dep_delay))
#> `summarise()` regrouping output by 'year', 'month' (override with `.groups` argument)
#> # A tibble: 365 x 4
#> # Groups:   year, month [12]
#>    year month   day  mean
#>   <int> <int> <int> <dbl>
#> 1  2013     1     1    NA
#> 2  2013     1     2    NA
#> 3  2013     1     3    NA
#> 4  2013     1     4    NA
#> 5  2013     1     5    NA
#> 6  2013     1     6    NA
#> # . with 359 more rows
```

jika ada nilai yang hilang dalam masukan, keluarannya adalah nilai yang hilang. Untungnya, semua fungsi agregasi memiliki argumen na.rm yang menghapus nilai yang hilang sebelum komputasi:
```{r}
flights %>% 
  group_by(year, month, day) %>% 
  summarise(mean = mean(dep_delay, na.rm = TRUE))
#> `summarise()` regrouping output by 'year', 'month' (override with `.groups` argument)
#> # A tibble: 365 x 4
#> # Groups:   year, month [12]
#>    year month   day  mean
#>   <int> <int> <int> <dbl>
#> 1  2013     1     1 11.5 
#> 2  2013     1     2 13.9 
#> 3  2013     1     3 11.0 
#> 4  2013     1     4  8.95
#> 5  2013     1     5  5.73
#> 6  2013     1     6  7.15
#> # . with 359 more rows
```

Dalam kasus ini, di mana nilai yang hilang mewakili penerbangan yang dibatalkan, kami juga dapat mengatasi masalah tersebut dengan terlebih dahulu menghapus penerbangan yang dibatalkan.

```{r}
not_cancelled <- flights %>% 
  filter(!is.na(dep_delay), !is.na(arr_delay))

not_cancelled %>% 
  group_by(year, month, day) %>% 
  summarise(mean = mean(dep_delay))
#> `summarise()` regrouping output by 'year', 'month' (override with `.groups` argument)
#> # A tibble: 365 x 4
#> # Groups:   year, month [12]
#>    year month   day  mean
#>   <int> <int> <int> <dbl>
#> 1  2013     1     1 11.4 
#> 2  2013     1     2 13.7 
#> 3  2013     1     3 10.9 
#> 4  2013     1     4  8.97
#> 5  2013     1     5  5.73
#> 6  2013     1     6  7.15
#> # . with 359 more rows
```
…
batters %>% 
  filter(ab > 100) %>% 
  ggplot(mapping = aes(x = ab, y = ba)) +
    geom_point() + 
    geom_smooth(se = FALSE)
#> `geom_smooth()` using method = 'gam' and formula 'y ~ s(x, bs = "cs")'
```
```{r}
batters %>% 
  arrange(desc(ba))
#> # A tibble: 19,689 x 3
#>   playerID     ba    ab
#>   <chr>     <dbl> <int>
#> 1 abramge01     1     1
#> 2 alanirj01     1     1
#> 3 alberan01     1     1
#> 4 banisje01     1     1
#> 5 bartocl01     1     1
#> 6 bassdo01      1     1
#> # . with 19,683 more rows
```
…
Pengukuran lokasi: kami telah menggunakan mean (x), tetapi median (x) juga berguna. Rata-rata adalah jumlah dibagi panjang; median adalah nilai di mana 50% dari x berada di atasnya, dan 50% di bawahnya.

Terkadang berguna untuk menggabungkan agregasi dengan subset logis. Kami belum membicarakan subset semacam ini, tetapi Anda akan mempelajarinya lebih lanjut di subset.

```{r}
not_cancelled %>% 
  group_by(year, month, day) %>% 
  summarise(
    avg_delay1 = mean(arr_delay),
    avg_delay2 = mean(arr_delay[arr_delay > 0]) # the average positive delay
  )
#> `summarise()` regrouping output by 'year', 'month' (override with `.groups` argument)
#> # A tibble: 365 x 5
#> # Groups:   year, month [12]
#>    year month   day avg_delay1 avg_delay2
#>   <int> <int> <int>      <dbl>      <dbl>
#> 1  2013     1     1      12.7        32.5
#> 2  2013     1     2      12.7        32.0
#> 3  2013     1     3       5.73       27.7
#> 4  2013     1     4      -1.93       28.3
#> 5  2013     1     5      -1.53       22.6
#> 6  2013     1     6       4.24       24.4
#> # . with 359 more rows
```
…
